<?xml version="1.0" standalone="no"?>
<!DOCTYPE svg PUBLIC "-//W3C//DTD SVG 20010904//EN"
 "http://www.w3.org/TR/2001/REC-SVG-20010904/DTD/svg10.dtd">
<svg version="1.0" xmlns="http://www.w3.org/2000/svg"
 width="800.000000pt" height="969.000000pt" viewBox="0 0 800.000000 969.000000"
 preserveAspectRatio="xMidYMid meet">
<metadata>
Created by potrace 1.16, written by Peter Selinger 2001-2019
</metadata>
<g transform="translate(0.000000,969.000000) scale(0.100000,-0.100000)"
fill="#000000" stroke="none">
<path d="M3680 8491 c-137 -30 -165 -39 -205 -71 -34 -27 -90 -50 -122 -50 -7
0 -61 -15 -120 -34 -59 -19 -148 -41 -197 -50 -67 -11 -97 -22 -123 -43 -19
-15 -61 -44 -92 -63 -75 -46 -103 -67 -294 -233 -61 -53 -323 -304 -396 -380
-49 -50 -146 -152 -301 -318 -57 -61 -115 -127 -181 -204 -28 -33 -63 -74 -78
-90 -15 -17 -46 -57 -68 -91 -22 -33 -48 -66 -56 -73 -9 -7 -28 -32 -42 -57
-14 -24 -34 -48 -45 -54 -11 -6 -29 -28 -40 -50 -11 -22 -34 -55 -50 -74 -17
-18 -39 -54 -50 -78 -10 -24 -29 -53 -41 -64 -12 -10 -34 -46 -50 -78 -16 -33
-38 -69 -49 -81 -11 -12 -31 -49 -44 -83 -14 -35 -36 -76 -50 -93 -14 -16 -35
-60 -46 -97 -11 -37 -33 -86 -49 -109 -16 -24 -37 -75 -47 -115 -9 -40 -31
-101 -47 -136 -20 -43 -35 -100 -47 -185 -11 -67 -26 -151 -34 -187 -39 -168
-40 -445 -2 -610 8 -36 24 -138 35 -226 15 -116 29 -185 50 -242 17 -45 38
-121 46 -169 9 -48 32 -122 50 -163 19 -41 41 -105 49 -142 9 -37 29 -91 45
-120 16 -29 39 -84 50 -123 11 -38 32 -86 45 -106 13 -20 32 -62 41 -95 9 -32
32 -81 50 -109 18 -27 41 -75 50 -105 10 -30 28 -70 42 -87 13 -18 37 -65 53
-104 16 -39 38 -81 49 -93 11 -11 29 -47 41 -79 12 -31 33 -70 46 -86 13 -16
34 -51 46 -78 11 -26 32 -61 46 -78 14 -16 36 -55 49 -85 14 -30 36 -67 51
-83 14 -15 37 -47 51 -71 43 -73 108 -169 146 -216 20 -25 57 -71 83 -103 69
-86 245 -257 291 -282 10 -5 36 -25 57 -43 58 -49 171 -130 207 -148 18 -9 46
-29 62 -45 17 -15 48 -35 70 -45 22 -9 55 -30 74 -46 19 -17 55 -39 80 -50 25
-10 57 -30 71 -43 14 -14 51 -33 83 -44 31 -11 74 -33 94 -49 21 -17 63 -38
93 -47 30 -10 77 -31 103 -47 93 -59 450 -102 652 -79 55 6 213 18 350 26 277
17 333 24 515 60 69 14 184 32 255 40 72 9 155 23 185 31 107 30 236 62 299
74 36 6 86 23 113 36 27 14 92 33 145 44 66 14 110 29 141 50 24 16 70 36 101
45 31 9 81 31 111 49 30 18 71 39 90 46 19 7 51 25 70 40 19 15 57 39 84 54
27 15 63 41 80 57 133 127 170 166 201 212 19 29 42 62 50 73 9 12 24 50 35
85 10 35 28 91 40 124 19 52 21 75 18 170 -4 99 -8 119 -43 204 l-39 93 -80
39 c-100 48 -172 52 -293 15 -43 -13 -112 -31 -154 -40 -44 -10 -90 -27 -110
-42 -18 -13 -65 -34 -104 -45 -38 -11 -89 -34 -112 -50 -24 -17 -68 -39 -100
-50 -31 -10 -67 -29 -79 -40 -12 -11 -54 -33 -93 -49 -39 -16 -86 -40 -104
-53 -17 -14 -55 -32 -83 -41 -27 -9 -74 -32 -103 -50 -29 -19 -76 -40 -104
-46 -29 -7 -79 -27 -112 -45 -34 -19 -89 -38 -125 -45 -36 -6 -118 -22 -183
-36 -158 -32 -227 -30 -444 15 -136 28 -191 43 -220 63 -21 14 -68 36 -105 48
-37 11 -78 30 -92 41 -13 10 -55 33 -93 50 -37 17 -77 39 -88 49 -11 11 -43
29 -70 41 -81 36 -237 155 -351 269 -121 121 -141 143 -162 186 -12 23 -33 55
-47 72 -14 17 -34 50 -45 74 -10 24 -30 54 -44 67 -14 14 -35 49 -47 80 -11
31 -34 77 -50 102 -16 25 -38 71 -48 102 -11 31 -32 72 -46 91 -14 19 -36 67
-49 108 -12 40 -34 90 -48 110 -14 21 -31 61 -38 90 -7 29 -28 82 -46 116 -19
35 -43 101 -54 146 -10 45 -32 107 -48 138 -17 32 -35 87 -42 129 -6 41 -26
117 -42 169 -24 72 -31 115 -32 175 -1 78 0 82 43 152 41 68 147 173 174 173
6 0 40 18 76 39 50 30 88 43 155 56 50 9 105 23 124 31 144 60 503 80 1182 68
680 -13 1482 -11 1616 4 61 7 149 24 195 37 46 14 129 32 184 41 71 10 121 24
170 48 39 19 95 42 125 51 30 10 69 30 87 46 18 15 54 37 80 49 43 19 77 46
151 121 45 46 123 164 133 204 6 22 26 74 44 115 41 91 55 170 55 316 0 140
-13 208 -49 259 -15 22 -38 62 -49 88 -12 26 -36 67 -55 90 -18 23 -42 56 -52
72 -10 17 -29 41 -43 55 -30 32 -82 100 -129 170 -20 30 -51 72 -70 93 -18 20
-33 41 -33 47 0 5 -19 32 -42 59 -44 50 -72 88 -143 190 -22 32 -52 72 -67 90
-16 18 -28 38 -28 46 0 7 -17 34 -38 59 -21 26 -46 70 -55 100 -10 29 -30 70
-46 89 -15 20 -36 64 -45 99 -10 35 -30 79 -45 98 -16 20 -38 56 -51 80 -43
87 -209 243 -301 284 -30 13 -63 33 -73 45 -11 12 -51 31 -90 43 -39 11 -95
34 -124 50 -36 20 -86 36 -160 49 -59 10 -127 26 -152 34 -91 30 -179 44 -356
60 -194 16 -256 25 -374 55 -41 11 -134 26 -205 35 -72 9 -165 22 -209 30 -95
18 -100 18 -206 -4z m561 -1201 c26 -11 88 -29 138 -40 56 -13 102 -31 119
-45 15 -12 45 -31 67 -43 103 -52 269 -221 331 -337 15 -27 37 -63 50 -78 34
-40 47 -98 48 -207 1 -132 -14 -167 -108 -251 -59 -53 -88 -71 -141 -88 -37
-12 -77 -28 -89 -36 -40 -25 -128 -45 -279 -60 -83 -9 -194 -23 -247 -31 -110
-16 -398 -19 -515 -4 -44 5 -187 21 -317 34 -226 24 -239 26 -305 59 -37 19
-81 38 -98 41 -37 8 -51 20 -91 71 -72 93 -72 127 -3 261 28 55 61 110 74 124
12 14 31 39 42 55 18 29 168 192 207 224 11 9 45 40 78 69 32 28 62 52 66 52
5 0 32 18 62 40 29 22 69 45 89 51 20 6 61 27 91 45 33 20 84 40 130 49 41 9
116 27 165 40 128 34 127 34 264 28 88 -3 139 -10 172 -23z"/>
</g>
</svg>
