<?xml version="1.0" standalone="no"?>
<!DOCTYPE svg PUBLIC "-//W3C//DTD SVG 20010904//EN"
 "http://www.w3.org/TR/2001/REC-SVG-20010904/DTD/svg10.dtd">
<svg version="1.0" xmlns="http://www.w3.org/2000/svg"
 width="800.000000pt" height="800.000000pt" viewBox="0 0 800.000000 800.000000"
 preserveAspectRatio="xMidYMid meet">
<metadata>
Created by potrace 1.16, written by Peter Selinger 2001-2019
</metadata>
<g transform="translate(0.000000,800.000000) scale(0.100000,-0.100000)"
fill="#000000" stroke="none">
<path d="M4665 7613 c-96 -6 -221 -24 -295 -43 -41 -11 -122 -27 -180 -35 -57
-9 -118 -23 -135 -32 -16 -9 -62 -33 -102 -53 -115 -59 -251 -180 -287 -256
-14 -29 -30 -55 -36 -59 -16 -10 -46 -74 -59 -129 -7 -26 -25 -75 -42 -107
-16 -33 -37 -94 -45 -137 -9 -42 -31 -111 -49 -152 -24 -53 -38 -108 -50 -190
-9 -63 -27 -143 -40 -177 -33 -86 -42 -143 -70 -418 -28 -285 -71 -488 -115
-539 -14 -17 -38 -51 -52 -76 -25 -44 -120 -137 -295 -291 -46 -40 -83 -76
-83 -79 0 -3 -18 -27 -40 -54 -37 -45 -40 -53 -40 -110 0 -56 4 -69 44 -131
24 -39 63 -90 85 -115 22 -25 63 -72 91 -105 28 -33 66 -76 84 -95 19 -19 44
-55 56 -80 13 -25 36 -63 51 -85 20 -28 36 -73 55 -155 74 -330 76 -348 100
-1035 29 -810 29 -897 5 -1090 -26 -201 -35 -238 -67 -287 -13 -21 -34 -63
-45 -94 -12 -31 -33 -70 -49 -87 -15 -18 -38 -52 -50 -77 -12 -25 -35 -59 -51
-77 -15 -18 -36 -52 -47 -75 -10 -24 -29 -52 -42 -63 -12 -11 -33 -44 -46 -72
-12 -29 -35 -69 -50 -88 -14 -19 -37 -70 -49 -112 -13 -43 -28 -91 -35 -108
-21 -54 6 -137 52 -161 17 -9 97 -21 191 -30 176 -17 313 -15 887 12 384 18
492 28 624 59 55 13 139 29 184 35 111 15 128 22 190 83 49 48 52 54 52 102 0
39 -7 62 -32 104 -45 74 -123 157 -185 197 -28 19 -55 38 -58 44 -4 6 -30 22
-58 36 -77 38 -181 145 -208 213 -12 31 -32 70 -44 86 -28 38 -42 81 -56 175
-6 41 -22 112 -35 157 -13 46 -28 120 -34 165 -15 125 -31 944 -25 1268 8 347
15 412 59 510 19 41 40 91 47 110 8 19 27 51 44 70 17 19 37 45 45 56 29 42
244 284 340 383 77 79 211 228 228 253 8 13 29 38 46 56 25 27 30 40 31 84 0
47 -3 54 -30 71 -16 10 -58 36 -92 57 -38 24 -90 46 -130 55 -38 9 -94 29
-126 46 -32 16 -84 38 -116 48 -89 28 -210 124 -248 198 -16 32 -41 74 -55 95
-15 21 -31 69 -41 117 -9 44 -30 111 -46 149 -18 41 -37 110 -46 172 -10 57
-30 139 -46 182 -44 119 -60 285 -38 388 8 38 23 65 60 108 70 79 174 169 262
225 123 78 258 94 582 68 250 -19 321 -10 456 64 100 54 106 59 156 135 65 98
77 144 71 265 -5 86 -9 101 -52 189 -52 108 -105 166 -169 186 -23 8 -75 27
-114 42 -104 41 -311 56 -548 41z"/>
</g>
</svg>
