<?xml version="1.0" standalone="no"?>
<!DOCTYPE svg PUBLIC "-//W3C//DTD SVG 20010904//EN"
 "http://www.w3.org/TR/2001/REC-SVG-20010904/DTD/svg10.dtd">
<svg version="1.0" xmlns="http://www.w3.org/2000/svg"
 width="800.000000pt" height="800.000000pt" viewBox="0 0 800.000000 800.000000"
 preserveAspectRatio="xMidYMid meet">
<metadata>
Created by potrace 1.16, written by Peter Selinger 2001-2019
</metadata>
<g transform="translate(0.000000,800.000000) scale(0.100000,-0.100000)"
fill="#000000" stroke="none">
<path d="M4916 7454 c-60 -20 -112 -45 -130 -62 -17 -15 -56 -45 -86 -65 -82
-55 -158 -119 -177 -147 -9 -14 -30 -41 -48 -60 -18 -19 -42 -53 -55 -75 -13
-22 -33 -51 -46 -65 -13 -14 -32 -46 -43 -71 -11 -25 -34 -62 -50 -83 -16 -20
-37 -61 -47 -89 -9 -29 -31 -74 -49 -102 -18 -27 -41 -76 -50 -109 -9 -32 -27
-75 -40 -95 -13 -20 -35 -78 -49 -129 -14 -51 -34 -108 -45 -126 -12 -19 -33
-80 -47 -136 -14 -57 -36 -122 -49 -144 -13 -23 -33 -66 -44 -96 -24 -62 -125
-191 -174 -220 -55 -34 -278 -98 -395 -114 -63 -9 -122 -21 -133 -26 -25 -14
-24 -52 1 -75 11 -10 31 -38 45 -61 14 -24 30 -44 36 -44 5 0 24 -24 43 -53
19 -29 41 -59 51 -67 9 -7 28 -34 42 -59 15 -25 43 -64 62 -87 33 -37 61 -82
116 -183 15 -27 20 -61 23 -142 5 -131 -10 -230 -48 -326 -16 -41 -37 -117
-46 -171 -9 -53 -25 -119 -36 -147 -41 -102 -46 -122 -62 -211 -8 -50 -29
-127 -45 -171 -16 -44 -37 -131 -46 -194 -9 -63 -30 -152 -46 -199 -16 -47
-38 -139 -49 -205 -11 -66 -33 -161 -49 -210 -16 -50 -37 -142 -45 -206 -9
-64 -30 -155 -46 -203 -16 -48 -38 -147 -49 -220 -11 -74 -32 -164 -46 -202
-15 -39 -35 -127 -46 -201 -10 -75 -32 -171 -49 -220 -17 -49 -38 -131 -46
-183 -8 -52 -30 -133 -49 -180 -39 -99 -85 -283 -85 -343 0 -52 33 -191 56
-241 17 -35 68 -76 111 -90 67 -21 188 85 330 292 18 26 46 64 62 85 16 20 37
59 47 85 10 26 30 66 45 88 16 23 36 72 45 110 9 38 32 101 50 139 20 44 38
106 48 167 9 53 29 127 45 165 16 37 37 109 46 158 9 50 31 135 50 190 18 55
41 150 50 210 9 61 28 137 41 170 14 33 32 103 40 155 18 115 35 187 62 261
12 30 30 109 41 176 11 66 30 145 42 174 32 80 38 104 54 211 8 54 28 130 44
170 16 41 38 128 50 193 11 66 32 148 46 183 14 35 35 109 46 164 11 55 31
123 45 151 14 27 35 86 46 131 11 44 35 108 53 141 18 33 39 79 46 102 6 23
29 63 50 88 22 26 39 51 39 55 0 19 119 122 160 137 25 9 68 29 95 44 28 15
78 35 111 44 52 14 71 26 123 79 53 54 62 68 71 117 23 126 -24 216 -228 432
-100 106 -135 150 -144 181 -28 99 -1 331 51 434 16 32 37 83 46 114 9 31 27
71 40 90 13 18 34 51 46 73 39 72 131 149 242 204 56 28 127 58 157 67 30 9
72 30 94 48 73 59 156 151 168 186 17 47 17 226 0 266 -7 17 -40 54 -74 84
-49 43 -80 60 -166 92 -130 47 -166 47 -296 2z"/>
</g>
</svg>
