<?xml version="1.0" standalone="no"?>
<!DOCTYPE svg PUBLIC "-//W3C//DTD SVG 20010904//EN"
 "http://www.w3.org/TR/2001/REC-SVG-20010904/DTD/svg10.dtd">
<svg version="1.0" xmlns="http://www.w3.org/2000/svg"
 width="800.000000pt" height="800.000000pt" viewBox="0 0 800.000000 800.000000"
 preserveAspectRatio="xMidYMid meet">
<metadata>
Created by potrace 1.16, written by Peter Selinger 2001-2019
</metadata>
<g transform="translate(0.000000,800.000000) scale(0.100000,-0.100000)"
fill="#000000" stroke="none">
<path d="M3771 7350 c-62 -13 -106 -28 -130 -45 -20 -14 -60 -41 -88 -60 -29
-20 -53 -40 -53 -44 0 -5 -22 -42 -50 -83 -42 -63 -51 -84 -60 -148 -12 -82
-5 -197 15 -246 33 -80 139 -205 200 -236 22 -11 49 -29 60 -39 37 -34 106
-50 235 -56 141 -6 220 5 267 40 111 81 135 103 162 145 16 26 42 64 57 85 19
26 33 64 45 130 23 113 24 204 4 297 -17 83 -37 125 -66 141 -11 6 -38 26 -59
45 -49 44 -86 59 -196 78 -115 21 -226 19 -343 -4z"/>
<path d="M3885 4871 c-27 -5 -67 -15 -87 -24 -21 -9 -81 -27 -133 -41 -53 -14
-110 -37 -128 -50 -18 -13 -54 -35 -82 -49 -50 -26 -138 -106 -205 -187 -20
-24 -47 -76 -61 -119 -15 -42 -35 -96 -44 -121 -13 -33 -18 -73 -18 -145 0
-88 4 -109 31 -175 16 -42 35 -95 42 -119 6 -23 25 -57 41 -74 58 -63 130
-184 140 -239 21 -115 49 -246 63 -298 27 -102 37 -293 43 -800 5 -504 -6
-949 -27 -1080 -6 -36 -24 -121 -40 -190 -15 -69 -31 -152 -35 -185 -4 -33
-25 -113 -46 -178 -59 -176 -66 -354 -15 -396 13 -11 295 -62 536 -98 138 -21
694 -25 756 -5 46 13 148 72 177 100 9 10 22 43 29 73 10 48 8 68 -11 151 -15
65 -32 110 -51 136 -16 22 -40 62 -53 88 -14 27 -37 62 -51 77 -15 16 -37 50
-50 76 -14 26 -32 54 -42 62 -9 8 -33 48 -51 89 -19 41 -40 82 -47 90 -24 28
-36 82 -58 259 -28 218 -30 576 -9 1206 19 562 21 1547 3 1715 -15 134 -69
326 -101 353 -9 7 -62 32 -117 55 -111 45 -204 58 -299 43z"/>
</g>
</svg>
