<?xml version="1.0" standalone="no"?>
<!DOCTYPE svg PUBLIC "-//W3C//DTD SVG 20010904//EN"
 "http://www.w3.org/TR/2001/REC-SVG-20010904/DTD/svg10.dtd">
<svg version="1.0" xmlns="http://www.w3.org/2000/svg"
 width="800.000000pt" height="800.000000pt" viewBox="0 0 800.000000 800.000000"
 preserveAspectRatio="xMidYMid meet">
<metadata>
Created by potrace 1.16, written by Peter Selinger 2001-2019
</metadata>
<g transform="translate(0.000000,800.000000) scale(0.100000,-0.100000)"
fill="#000000" stroke="none">
<path d="M2335 7480 c-128 -24 -241 -61 -289 -93 -28 -20 -69 -42 -90 -51 -42
-17 -70 -42 -177 -151 -62 -64 -71 -78 -106 -175 -48 -135 -51 -220 -11 -355
15 -49 32 -116 38 -147 7 -35 22 -71 41 -94 16 -20 37 -62 45 -93 9 -31 31
-83 49 -116 28 -50 37 -84 54 -200 12 -77 28 -174 36 -215 39 -201 40 -250 38
-1980 -1 -921 -6 -1931 -10 -2245 -5 -313 -6 -592 -1 -619 9 -61 27 -80 94
-106 30 -11 72 -31 93 -46 22 -14 65 -32 97 -40 31 -9 91 -30 133 -47 73 -30
81 -31 226 -32 l150 0 65 39 c36 22 91 66 123 98 47 47 66 77 104 165 45 103
47 112 48 203 0 80 -3 100 -22 130 -11 19 -32 63 -46 97 -14 34 -37 77 -50 95
-38 49 -44 72 -56 209 -8 91 -9 164 -1 269 13 175 22 218 59 290 16 30 35 74
42 98 7 24 26 58 43 77 17 19 42 47 56 64 32 37 148 75 200 66 89 -16 178 -49
225 -85 28 -20 61 -43 75 -50 22 -11 47 -33 125 -110 39 -38 100 -109 125
-146 16 -22 36 -46 45 -54 9 -8 28 -37 42 -64 14 -28 38 -64 53 -81 16 -16 38
-56 50 -88 12 -31 33 -71 46 -87 14 -16 36 -62 48 -102 12 -40 34 -93 48 -118
14 -25 33 -79 43 -120 9 -41 31 -109 50 -150 18 -41 38 -100 45 -131 6 -31 24
-77 40 -103 16 -25 39 -74 50 -107 11 -34 34 -80 50 -103 17 -23 41 -57 53
-76 25 -39 50 -49 187 -81 56 -14 137 -22 240 -26 133 -4 189 -1 400 25 135
17 277 34 315 37 83 8 170 29 228 55 23 10 75 28 115 40 66 19 75 24 88 55 22
53 18 90 -14 127 -16 18 -42 53 -59 78 -34 49 -161 174 -266 260 -37 30 -87
73 -111 95 -24 22 -72 63 -106 90 -34 28 -74 61 -88 75 -15 14 -49 42 -76 62
-58 44 -272 245 -441 413 -189 188 -419 445 -492 549 -16 22 -42 53 -59 71
-17 17 -37 41 -43 54 -7 12 -28 40 -47 61 -19 20 -44 59 -55 86 -12 27 -35 68
-52 91 -37 52 -46 117 -22 162 27 54 240 255 327 310 24 15 49 35 57 45 8 10
33 27 55 38 23 11 56 34 74 49 18 16 52 38 75 50 23 12 53 32 67 45 14 12 50
34 80 47 30 14 72 39 93 55 21 17 60 38 86 47 27 8 58 26 71 40 12 13 45 33
73 45 29 13 66 34 82 48 17 14 57 37 90 52 33 15 67 35 75 45 8 10 39 29 68
42 30 13 70 37 90 53 21 16 55 37 77 46 22 9 53 27 69 41 16 13 54 37 85 53
31 15 65 38 76 50 11 12 36 30 55 41 80 42 190 177 190 234 0 32 -60 132 -107
177 -26 25 -73 58 -103 72 -30 15 -73 37 -94 50 -22 13 -60 27 -85 31 -25 3
-107 20 -181 37 -156 35 -308 40 -432 13 -40 -9 -130 -27 -201 -40 -91 -17
-142 -32 -180 -53 -28 -16 -74 -38 -102 -47 -27 -10 -61 -28 -75 -40 -14 -12
-50 -38 -81 -58 -56 -35 -209 -198 -209 -222 0 -6 -16 -42 -35 -78 -29 -55
-37 -83 -46 -169 -18 -165 -27 -203 -63 -250 -18 -24 -39 -54 -46 -67 -24 -46
-217 -219 -277 -250 -23 -12 -57 -34 -75 -50 -18 -15 -51 -38 -74 -49 -22 -11
-47 -28 -54 -37 -8 -9 -41 -30 -74 -47 -34 -17 -72 -41 -86 -53 -14 -13 -45
-31 -70 -41 -25 -10 -61 -30 -81 -46 -20 -15 -66 -41 -102 -57 -35 -16 -68
-34 -71 -40 -12 -19 -64 -41 -122 -52 -76 -14 -110 0 -124 50 -23 86 -31 695
-25 1856 7 1213 1 1592 -29 1725 -8 36 -25 115 -37 175 -12 61 -28 123 -36
138 -8 16 -51 65 -96 110 -81 82 -83 83 -177 109 -118 34 -145 38 -195 28z"/>
</g>
</svg>
