<?xml version="1.0" standalone="no"?>
<!DOCTYPE svg PUBLIC "-//W3C//DTD SVG 20010904//EN"
 "http://www.w3.org/TR/2001/REC-SVG-20010904/DTD/svg10.dtd">
<svg version="1.0" xmlns="http://www.w3.org/2000/svg"
 width="800.000000pt" height="800.000000pt" viewBox="0 0 800.000000 800.000000"
 preserveAspectRatio="xMidYMid meet">
<metadata>
Created by potrace 1.16, written by Peter Selinger 2001-2019
</metadata>
<g transform="translate(0.000000,800.000000) scale(0.100000,-0.100000)"
fill="#000000" stroke="none">
<path d="M4035 7411 c-22 -4 -78 -19 -125 -34 -47 -15 -111 -34 -142 -42 -31
-8 -70 -27 -87 -40 -16 -14 -56 -35 -88 -46 -32 -11 -74 -32 -93 -48 -19 -15
-57 -38 -85 -50 -27 -12 -61 -33 -75 -45 -14 -13 -43 -33 -65 -45 -22 -11 -68
-47 -102 -79 -54 -52 -64 -68 -84 -131 -21 -72 -21 -74 -4 -139 22 -82 38
-115 84 -170 68 -82 208 -237 315 -347 99 -102 108 -115 128 -180 l21 -69 -7
-1546 c-6 -1503 -9 -1684 -40 -2430 -17 -381 -21 -417 -66 -555 -16 -49 -34
-115 -40 -146 -6 -31 -26 -79 -44 -108 -19 -29 -42 -76 -51 -104 -9 -28 -30
-69 -46 -92 -16 -22 -37 -65 -48 -95 -10 -30 -30 -75 -45 -100 -36 -64 -51
-140 -36 -185 20 -60 84 -105 211 -149 114 -40 114 -40 299 -44 206 -4 352 7
481 38 48 11 135 27 195 35 129 18 129 18 219 60 39 18 90 41 114 51 39 16 48
27 77 88 19 39 34 85 34 103 0 66 -56 257 -89 303 -17 24 -36 62 -42 84 -6 23
-26 67 -45 98 -23 39 -41 87 -55 150 -11 51 -31 128 -44 170 -14 43 -29 126
-35 185 -25 269 -31 1160 -20 3193 7 1125 9 2097 5 2160 -4 63 -13 126 -20
140 -24 46 -79 88 -165 126 -72 31 -97 37 -170 40 -47 1 -103 -1 -125 -5z"/>
</g>
</svg>
