<?xml version="1.0" standalone="no"?>
<!DOCTYPE svg PUBLIC "-//W3C//DTD SVG 20010904//EN"
 "http://www.w3.org/TR/2001/REC-SVG-20010904/DTD/svg10.dtd">
<svg version="1.0" xmlns="http://www.w3.org/2000/svg"
 width="800.000000pt" height="800.000000pt" viewBox="0 0 800.000000 800.000000"
 preserveAspectRatio="xMidYMid meet">
<metadata>
Created by potrace 1.16, written by Peter Selinger 2001-2019
</metadata>
<g transform="translate(0.000000,800.000000) scale(0.100000,-0.100000)"
fill="#000000" stroke="none">
<path d="M6929 6490 c-103 -8 -154 -21 -207 -51 -18 -10 -57 -26 -86 -34 -30
-9 -69 -27 -88 -40 -18 -14 -53 -38 -78 -55 -25 -17 -62 -54 -82 -83 -21 -29
-45 -62 -54 -74 -42 -59 -34 -237 15 -333 43 -82 53 -153 53 -360 1 -211 -12
-311 -52 -420 -15 -42 -35 -113 -43 -158 -10 -49 -28 -104 -46 -135 -16 -29
-38 -87 -50 -129 -11 -42 -34 -97 -50 -123 -16 -25 -35 -69 -41 -96 -7 -28
-27 -71 -44 -97 -18 -26 -41 -69 -51 -97 -10 -27 -33 -70 -50 -95 -17 -25 -38
-61 -45 -79 -8 -19 -27 -49 -42 -66 -15 -18 -39 -51 -52 -75 -28 -50 -146
-174 -191 -202 -21 -12 -50 -18 -93 -18 -62 0 -64 1 -117 51 -37 35 -59 66
-70 98 -8 26 -27 64 -41 84 -15 22 -36 82 -51 140 -13 55 -36 123 -49 150 -14
27 -34 89 -45 139 -11 49 -33 116 -49 148 -16 32 -37 89 -46 126 -9 38 -32 94
-50 124 -18 30 -38 78 -45 105 -6 28 -28 82 -49 120 -21 39 -43 93 -49 120 -7
28 -28 84 -46 125 -22 48 -37 103 -44 155 -23 180 -82 554 -97 610 -8 33 -27
76 -43 95 -15 19 -40 54 -54 77 -23 37 -87 89 -176 145 -41 25 -271 78 -342
78 -35 0 -140 -16 -232 -35 -155 -32 -174 -38 -235 -78 -37 -25 -76 -49 -88
-55 -12 -6 -45 -53 -75 -104 l-54 -93 0 -100 c1 -90 4 -107 32 -170 17 -38 36
-90 43 -115 6 -25 28 -74 47 -109 64 -116 66 -297 3 -426 -16 -33 -36 -91 -46
-128 -9 -37 -29 -87 -45 -110 -16 -23 -38 -71 -50 -107 -12 -36 -32 -79 -45
-97 -13 -17 -34 -60 -47 -95 -13 -36 -37 -82 -54 -104 -16 -21 -38 -61 -47
-87 -10 -26 -28 -60 -41 -75 -12 -15 -33 -49 -47 -77 -13 -27 -41 -72 -61 -98
-20 -27 -37 -55 -37 -62 0 -8 -20 -37 -44 -64 -24 -27 -47 -59 -51 -70 -8 -25
-119 -111 -144 -111 -10 0 -26 9 -37 21 -10 12 -32 28 -47 35 -15 8 -41 37
-58 64 -17 28 -35 50 -40 50 -6 0 -27 37 -48 83 -21 45 -45 88 -54 96 -9 7
-26 45 -38 85 -11 39 -34 92 -50 117 -16 25 -36 79 -45 120 -9 41 -29 99 -44
129 -28 57 -45 118 -56 205 -3 28 -19 91 -35 140 -30 97 -44 174 -54 300 -9
121 -24 219 -50 335 -13 58 -31 160 -40 228 -17 133 -18 138 -71 251 -54 116
-56 119 -130 182 -49 43 -85 64 -124 75 -30 9 -78 29 -107 45 -29 16 -93 38
-144 49 -50 11 -117 32 -148 46 -120 57 -266 56 -353 -4 -24 -16 -65 -39 -91
-52 -27 -12 -51 -29 -54 -37 -3 -7 -24 -23 -47 -35 -22 -11 -59 -35 -81 -53
-22 -18 -59 -42 -82 -53 -37 -19 -133 -121 -133 -142 0 -4 8 -18 19 -31 10
-13 28 -42 39 -65 11 -22 28 -47 37 -54 9 -8 30 -41 47 -74 17 -34 41 -72 54
-86 12 -14 35 -52 49 -85 15 -33 37 -74 50 -91 13 -17 31 -54 40 -83 10 -28
31 -70 47 -92 17 -23 38 -66 49 -97 10 -30 32 -75 49 -99 16 -25 37 -71 46
-102 9 -31 31 -81 49 -111 18 -30 40 -80 49 -110 8 -30 27 -71 41 -90 14 -19
35 -65 46 -102 11 -37 33 -86 49 -110 16 -24 36 -70 45 -103 9 -33 32 -87 50
-120 19 -34 39 -83 46 -110 6 -28 28 -81 49 -120 21 -38 43 -93 50 -122 6 -29
24 -72 40 -95 15 -24 38 -76 49 -116 12 -39 35 -93 51 -120 16 -26 36 -76 45
-112 9 -36 29 -87 45 -115 16 -27 37 -82 48 -121 11 -38 33 -95 50 -125 17
-30 38 -83 47 -119 9 -36 29 -87 45 -115 16 -27 36 -79 45 -115 9 -36 30 -90
47 -120 17 -30 39 -86 49 -123 9 -38 29 -86 44 -107 28 -40 54 -103 55 -131 0
-8 15 -41 34 -72 19 -31 42 -79 51 -106 9 -28 27 -65 40 -83 13 -18 35 -53 49
-78 51 -94 192 -234 251 -251 56 -17 153 -14 195 4 63 27 187 162 233 253 14
28 33 56 41 63 9 8 26 46 37 85 12 39 37 96 55 126 18 30 39 83 48 117 8 34
29 88 45 120 16 32 36 96 45 142 8 46 29 113 46 148 16 36 39 109 50 164 11
54 31 121 45 149 14 28 34 94 45 147 12 58 32 116 49 147 16 28 37 85 46 126
9 41 29 96 45 121 15 25 37 76 49 112 12 37 33 83 47 103 14 19 38 64 54 97
36 75 88 145 155 210 67 65 103 87 144 87 29 0 43 -10 95 -64 80 -84 144 -175
168 -238 11 -29 30 -65 43 -80 14 -16 34 -61 46 -101 11 -40 34 -95 50 -123
16 -28 35 -82 44 -120 9 -38 31 -103 50 -144 18 -41 41 -112 49 -158 9 -46 29
-117 46 -158 16 -40 37 -116 45 -166 9 -51 29 -122 45 -158 16 -36 38 -108 49
-159 11 -51 33 -116 49 -144 16 -29 37 -83 46 -122 10 -38 30 -90 46 -113 16
-24 38 -72 50 -107 11 -34 30 -71 42 -81 11 -11 32 -37 46 -59 36 -58 168
-181 227 -212 40 -22 179 -45 230 -38 100 12 167 36 213 73 62 51 182 171 182
181 0 5 16 29 36 52 20 24 47 66 59 94 13 27 35 66 49 85 15 19 35 64 46 100
11 36 29 79 40 95 29 41 39 68 56 148 8 38 28 100 44 137 17 38 39 111 49 162
11 51 31 119 46 152 14 32 34 100 44 151 11 50 33 119 50 153 17 34 38 95 46
134 9 40 29 98 45 129 16 31 37 88 46 125 9 38 29 93 45 121 16 29 38 88 50
130 12 43 34 101 49 128 16 28 36 79 45 115 9 36 29 87 45 113 16 26 37 74 46
105 9 31 31 84 49 117 18 33 41 87 50 120 10 33 30 83 47 112 16 29 38 83 48
122 11 38 33 91 49 117 17 27 37 78 46 114 9 36 30 88 46 116 15 28 36 82 44
120 9 38 30 93 46 122 16 29 39 90 49 137 11 46 34 113 51 148 16 35 37 102
45 148 9 46 26 119 40 162 27 88 31 180 10 231 -7 18 -30 56 -51 84 -27 39
-46 54 -73 61 -53 14 -320 20 -433 11z"/>
</g>
</svg>
