<?xml version="1.0" standalone="no"?>
<!DOCTYPE svg PUBLIC "-//W3C//DTD SVG 20010904//EN"
 "http://www.w3.org/TR/2001/REC-SVG-20010904/DTD/svg10.dtd">
<svg version="1.0" xmlns="http://www.w3.org/2000/svg"
 width="800.000000pt" height="800.000000pt" viewBox="0 0 800.000000 800.000000"
 preserveAspectRatio="xMidYMid meet">
<metadata>
Created by potrace 1.16, written by Peter Selinger 2001-2019
</metadata>
<g transform="translate(0.000000,800.000000) scale(0.100000,-0.100000)"
fill="#000000" stroke="none">
<path d="M3165 7112 c-27 -11 -84 -31 -125 -46 -41 -14 -88 -39 -105 -55 -16
-15 -47 -38 -67 -50 -21 -13 -38 -27 -38 -31 0 -5 -21 -32 -47 -60 -86 -90
-130 -144 -148 -180 -10 -19 -31 -51 -47 -72 -15 -20 -35 -54 -44 -75 -9 -21
-31 -58 -49 -83 -17 -25 -39 -66 -48 -91 -8 -26 -34 -77 -56 -115 -23 -37 -41
-73 -41 -80 0 -7 -16 -33 -35 -58 -19 -25 -45 -67 -59 -93 -13 -26 -37 -65
-54 -86 -21 -26 -33 -56 -41 -101 -29 -166 40 -225 158 -133 31 24 64 48 73
53 9 5 30 27 47 49 17 22 60 76 96 120 35 44 79 100 97 125 17 25 39 49 47 54
9 5 34 29 56 52 43 47 152 104 197 104 43 0 148 -58 167 -92 9 -17 31 -49 49
-71 18 -23 41 -71 52 -107 11 -36 33 -83 48 -106 17 -26 35 -72 46 -125 10
-46 31 -109 46 -139 17 -33 37 -101 48 -161 11 -57 34 -138 50 -179 17 -41 38
-122 47 -180 10 -58 30 -139 45 -181 16 -42 36 -127 45 -189 9 -62 30 -156 46
-209 17 -53 39 -159 50 -236 10 -77 28 -167 39 -200 31 -97 38 -133 55 -279 8
-76 28 -189 44 -250 16 -62 34 -158 40 -214 6 -56 16 -148 22 -204 5 -57 22
-175 37 -263 23 -140 26 -189 27 -395 l0 -235 -31 -65 c-17 -36 -37 -81 -45
-100 -12 -30 -41 -68 -132 -169 -58 -64 -221 -202 -264 -224 -26 -14 -56 -34
-67 -46 -10 -11 -44 -30 -75 -41 -31 -12 -76 -34 -101 -50 -53 -34 -173 -59
-325 -67 -140 -7 -346 24 -435 66 -87 41 -148 51 -304 51 -152 0 -194 -9 -244
-54 -20 -18 -51 -42 -69 -54 -57 -40 -94 -210 -73 -341 13 -83 50 -178 74
-187 8 -3 27 -23 42 -45 15 -22 48 -52 73 -67 25 -14 62 -38 81 -54 19 -15 73
-40 120 -57 47 -16 112 -40 145 -52 58 -23 69 -24 345 -24 l285 0 90 41 c50
23 106 47 126 53 20 6 46 22 58 35 13 13 48 36 80 50 32 14 66 35 76 46 10 11
35 30 54 42 20 12 55 38 77 57 23 20 77 65 119 101 43 36 106 90 140 120 71
62 352 350 386 395 13 17 42 53 67 80 204 233 352 419 407 509 11 18 37 52 58
75 20 22 37 46 37 51 0 5 15 27 34 47 18 21 44 58 56 83 12 25 36 60 51 78 16
18 36 49 44 69 8 19 29 51 46 71 17 19 39 53 49 76 9 23 29 55 42 71 14 17 39
59 55 95 16 36 37 71 45 78 9 7 26 38 39 70 12 31 37 77 54 102 18 25 40 68
49 96 9 28 30 72 46 98 16 25 35 68 41 94 6 26 28 79 49 117 20 39 43 93 50
120 7 28 28 82 46 120 18 39 40 103 49 143 8 39 28 99 45 131 16 33 38 99 49
148 11 48 32 115 46 148 15 33 36 106 46 162 10 56 32 134 48 173 19 45 36
111 47 181 9 61 29 150 45 197 16 48 39 147 50 221 10 74 33 189 49 255 21 85
36 187 50 341 11 121 30 285 41 365 29 197 23 341 -21 507 -18 65 -36 125 -41
134 -5 9 -33 42 -64 74 -46 47 -71 63 -143 91 -50 19 -105 34 -129 34 -64 0
-181 -51 -231 -102 -56 -56 -66 -76 -86 -173 -9 -44 -27 -111 -41 -150 -23
-69 -33 -131 -55 -350 -6 -60 -19 -165 -30 -231 -22 -139 -44 -356 -60 -594
-11 -177 -18 -230 -55 -440 -13 -74 -29 -187 -35 -250 -7 -63 -25 -167 -41
-230 -17 -63 -39 -169 -50 -235 -13 -79 -30 -140 -49 -180 -16 -33 -36 -90
-46 -127 -22 -90 -101 -196 -161 -217 -56 -20 -90 -4 -142 65 -53 71 -66 98
-80 163 -6 29 -24 83 -40 120 -16 36 -37 105 -46 153 -9 48 -29 126 -45 172
-26 79 -34 115 -60 302 -5 38 -23 113 -39 166 -16 52 -34 139 -41 194 -14 130
-27 193 -55 285 -13 43 -31 130 -40 195 -9 66 -30 159 -47 208 -16 49 -39 139
-49 200 -12 66 -32 136 -49 173 -15 34 -33 88 -40 120 -16 84 -30 124 -53 157
-11 15 -30 62 -43 103 -13 41 -34 89 -47 106 -13 18 -34 52 -47 77 -29 56 -77
115 -160 196 -60 59 -73 66 -170 99 -135 45 -208 52 -275 27z"/>
</g>
</svg>
