<?xml version="1.0" standalone="no"?>
<!DOCTYPE svg PUBLIC "-//W3C//DTD SVG 20010904//EN"
 "http://www.w3.org/TR/2001/REC-SVG-20010904/DTD/svg10.dtd">
<svg version="1.0" xmlns="http://www.w3.org/2000/svg"
 width="800.000000pt" height="800.000000pt" viewBox="0 0 800.000000 800.000000"
 preserveAspectRatio="xMidYMid meet">
<metadata>
Created by potrace 1.16, written by Peter Selinger 2001-2019
</metadata>
<g transform="translate(0.000000,800.000000) scale(0.100000,-0.100000)"
fill="#000000" stroke="none">
<path d="M2665 7430 c-245 -9 -291 -14 -404 -47 -47 -13 -108 -29 -135 -35
-62 -13 -105 -35 -173 -91 -70 -57 -134 -130 -177 -203 -19 -34 -42 -66 -50
-73 -8 -7 -22 -34 -31 -60 -9 -27 -29 -70 -46 -96 -17 -27 -37 -78 -46 -114
-8 -36 -26 -103 -39 -147 -61 -208 -54 -326 28 -447 45 -67 66 -77 152 -77 52
0 74 6 127 34 35 18 81 39 102 46 21 7 53 24 70 39 18 15 54 40 80 55 27 15
51 34 54 42 3 7 26 27 51 44 26 16 81 59 122 95 41 36 99 81 128 101 29 19 56
42 59 49 3 8 30 26 61 41 32 15 71 37 87 49 42 31 48 33 255 72 181 34 192 35
550 44 552 13 1251 -18 1423 -62 20 -5 44 -20 53 -34 14 -21 14 -27 0 -52 -8
-16 -22 -36 -31 -43 -10 -8 -28 -39 -41 -68 -13 -30 -40 -72 -59 -93 -19 -22
-35 -45 -35 -53 0 -8 -17 -36 -37 -63 -20 -26 -47 -68 -59 -93 -12 -25 -32
-54 -44 -65 -12 -11 -33 -41 -46 -66 -12 -25 -34 -59 -47 -75 -13 -16 -36 -51
-50 -79 -13 -27 -35 -59 -47 -70 -12 -11 -31 -38 -42 -60 -12 -22 -34 -56 -51
-74 -16 -19 -38 -53 -48 -76 -10 -22 -30 -52 -44 -65 -15 -14 -38 -46 -50 -71
-13 -25 -35 -59 -48 -75 -13 -16 -37 -53 -53 -83 -15 -29 -34 -56 -42 -58 -7
-3 -25 -29 -39 -57 -14 -28 -39 -66 -54 -84 -16 -18 -38 -52 -50 -75 -12 -23
-37 -59 -55 -80 -19 -20 -34 -42 -34 -49 0 -6 -17 -34 -39 -62 -21 -28 -48
-69 -59 -91 -11 -22 -30 -49 -42 -60 -12 -11 -31 -37 -41 -57 -11 -21 -32 -52
-48 -70 -15 -18 -38 -53 -51 -78 -12 -25 -40 -64 -61 -87 -22 -24 -39 -48 -39
-55 0 -8 -19 -36 -41 -63 -23 -28 -48 -64 -55 -82 -8 -17 -32 -52 -54 -78 -22
-25 -40 -51 -40 -57 0 -6 -16 -28 -35 -49 -19 -21 -44 -57 -56 -81 -12 -24
-35 -58 -52 -77 -16 -19 -35 -48 -42 -65 -8 -17 -23 -40 -35 -51 -12 -11 -39
-50 -60 -86 -22 -36 -46 -72 -55 -79 -9 -8 -27 -34 -40 -59 -12 -25 -33 -55
-45 -66 -12 -11 -31 -37 -41 -57 -11 -21 -32 -52 -48 -70 -15 -18 -36 -49 -46
-68 -9 -19 -32 -51 -50 -70 -17 -19 -44 -56 -59 -82 -15 -27 -30 -48 -35 -48
-4 0 -25 -29 -45 -64 -21 -36 -47 -73 -58 -83 -11 -10 -31 -39 -43 -64 -13
-25 -31 -51 -40 -59 -9 -7 -36 -44 -60 -81 -24 -36 -48 -70 -54 -74 -6 -3 -22
-27 -35 -53 -13 -26 -38 -60 -55 -76 -17 -17 -31 -35 -31 -41 0 -6 -18 -33
-41 -60 -22 -27 -50 -68 -61 -90 -11 -22 -36 -57 -54 -78 -19 -20 -34 -41 -34
-46 0 -6 -18 -31 -40 -56 -23 -26 -51 -68 -64 -93 -13 -26 -34 -56 -45 -66
-12 -11 -33 -41 -48 -67 -14 -26 -32 -50 -39 -53 -7 -3 -25 -28 -39 -55 -14
-28 -38 -65 -54 -83 -15 -18 -40 -56 -54 -84 -14 -27 -33 -57 -43 -65 -9 -8
-30 -42 -45 -77 -16 -34 -40 -78 -54 -96 -14 -18 -33 -57 -44 -87 -10 -30 -32
-81 -50 -114 -52 -100 -64 -293 -21 -348 10 -12 42 -39 73 -60 51 -35 63 -39
154 -47 790 -72 1846 -96 2913 -66 322 9 655 21 740 26 85 6 265 17 400 25
239 15 337 30 383 59 12 8 47 24 77 36 69 27 188 140 231 220 16 30 40 69 53
87 13 18 31 63 40 100 9 37 31 104 48 148 29 75 31 91 36 242 6 221 1 255 -54
339 -25 38 -57 75 -72 81 -44 21 -127 7 -217 -36 -44 -22 -98 -46 -120 -56
-21 -9 -55 -29 -75 -45 -19 -15 -45 -31 -58 -34 -12 -4 -42 -24 -66 -45 -24
-20 -58 -43 -77 -51 -19 -7 -55 -29 -81 -47 -26 -19 -78 -43 -119 -54 -39 -11
-87 -28 -108 -38 -60 -31 -109 -40 -297 -55 -98 -8 -210 -20 -249 -26 -258
-39 -1352 -73 -1744 -54 -185 9 -194 10 -212 33 -32 40 -26 109 16 170 19 28
46 74 58 103 13 29 32 59 41 67 10 8 31 42 48 75 17 34 42 74 56 91 14 16 33
50 44 74 10 24 30 58 45 75 14 17 36 54 48 81 13 28 33 59 45 70 12 11 33 45
47 75 13 30 35 66 47 80 13 14 35 48 49 76 14 27 33 56 42 64 9 8 32 44 50 80
18 36 41 72 50 80 9 8 28 36 42 64 14 28 38 66 54 86 15 19 35 52 44 72 8 21
28 52 44 70 15 18 40 56 54 84 14 28 37 65 52 82 14 16 32 46 40 66 8 19 28
50 44 68 15 18 38 55 50 82 11 27 37 66 56 87 19 22 35 45 35 53 0 8 16 35 35
60 19 25 48 73 65 106 17 34 37 63 45 66 8 3 28 34 44 68 16 34 37 68 46 76 9
8 29 39 45 70 16 31 36 62 45 70 9 8 30 41 47 74 17 34 42 74 55 90 13 16 33
47 45 70 11 22 32 55 46 71 14 17 35 53 47 80 13 28 33 59 45 70 12 11 33 43
47 70 14 28 40 70 58 95 17 25 37 59 44 77 7 17 24 42 38 55 14 12 34 41 45
63 11 22 35 58 53 80 17 22 43 58 57 80 40 63 209 231 254 253 43 22 181 166
207 217 8 17 29 44 46 62 17 18 37 49 46 70 9 21 29 55 46 76 17 20 41 61 54
90 12 29 31 59 40 67 10 8 31 43 46 78 16 34 41 79 58 100 16 20 34 54 40 74
7 20 26 54 43 75 16 21 41 62 54 91 13 30 35 67 49 84 14 17 32 46 40 65 8 20
29 51 46 71 17 20 38 52 46 71 8 20 32 59 53 86 21 28 41 61 45 75 4 14 20 50
36 80 39 75 39 141 0 224 -15 34 -31 71 -35 82 -4 12 -33 44 -65 73 -58 50
-62 51 -208 86 -200 48 -265 53 -798 65 -511 11 -2242 11 -2570 0z"/>
</g>
</svg>
